6 M2A: Getting Started with Data in R | Introduction to Data Science
…
airlines: A table matching airline names and their two-letter International Air Transport Association (IATA) airline codes (also known as carrier codes) for 16 airline companies. For example, “DL” is the two-letter code for Delta.

planes: Information about each of the 3,322 physical aircraft used.

weather: Hourly meteorological data for each of the three NYC airports. This data frame has 26,115 rows, roughly corresponding to the \(365 \times 24 \times 3 = 26,280\) possible hourly measurements one can observe at three locations over the course of a year.

airports: Names, codes, and locations of the 1,458 domestic destinations.

6.5.2 flights data frame

We’ll begin by exploring the flights data frame and get an idea of its structure. Run the following code in your console, either by typing it or by copying-and-pasting it. Make sure that you only type (or copy-and-paste) the top of the two boxes below this paragraph. When walkthroughs in this book provide you with example code, there will typically be two boxes: The first will provide the code, and the second will provide the output from that code (preceded with ## before each line to show that it’s output, not code). In this case, that’s the contents of the flights data frame, which will also show in your console once you’ve run the code yourself. However, note that depending on the size of your monitor, the output may vary slightly.

flights

# A tibble: 336,776 × 19
    year month   day dep_time sched_dep_time dep_delay arr_time sched_arr_time
   <int> <int> <int>    <int>          <int>     <dbl>    <int>          <int>
 1  2013     1     1      517            515         2      830            819
 2  2013     1     1      533            529         4      850            830
 3  2013     1     1      542            540         2      923            850
 4  2013     1     1      544            545        -1     1004           1022
 5  2013     1     1      554            600        -6      812            837
 6  2013     1     1      554            558        -4      740            728
 7  2013     1     1      555            600        -5      913            854
 8  2013     1     1      557            600        -3      709            723
 9  2013     1     1      557            600        -3      838            846
10  2013     1     1      558            600        -2      753            745
# ℹ 336,766 more rows
# ℹ 11 more variables: arr_delay <dbl>, carrier <chr>, flight <int>,
#   tailnum <chr>, origin <chr>, dest <chr>, air_time <dbl>, distance <dbl>,
#   hour <dbl>, minute <dbl>, time_hour <dttm>
…
