42 M13A: Hypothesis Testing | Introduction to Data Science
…
42.4.1 infer package workflow

1. specify variables

Recall that we use the specify() verb to specify the response variable and, if needed, any explanatory variables for our study. In this case, since we are interested in any potential effects of gender on promotion decisions, we set decision as the response variable and gender as the explanatory variable. We do so using formula = response ~ explanatory where response is the name of the response variable in the data frame and explanatory is the name of the explanatory variable. So in our case it is decision ~ gender.

Furthermore, since we are interested in the proportion of résumés "promoted", and not the proportion of résumés not promoted, we set the argument success to "promoted".

promotions %>% 
  specify(formula = decision ~ gender, success = "promoted") 

Response: decision (factor)
Explanatory: gender (factor)
# A tibble: 48 × 2
   decision gender
   <fct>    <fct> 
 1 promoted male  
 2 promoted male  
 3 promoted male  
 4 promoted male  
 5 promoted male  
 6 promoted male  
 7 promoted male  
 8 promoted male  
 9 promoted male  
10 promoted male  
# ℹ 38 more rows
…
"point" for hypotheses involving a single sample or

"independence" for hypotheses involving two samples.

In our case, since we have two samples (the résumés with “male” and “female” names), we set null = "independence".

promotions %>% 
  specify(formula = decision ~ gender, success = "promoted") %>% 
  hypothesize(null = "independence")

Response: decision (factor)
Explanatory: gender (factor)
Null Hypothesis: independence
# A tibble: 48 × 2
   decision gender
   <fct>    <fct> 
 1 promoted male  
 2 promoted male  
 3 promoted male  
 4 promoted male  
 5 promoted male  
 6 promoted male  
 7 promoted male  
 8 promoted male  
 9 promoted male  
10 promoted male  
# ℹ 38 more rows
…
Now that we have generated 1000 replicates of “shuffles” assuming the null hypothesis is true, let’s calculate() the appropriate summary statistic for each of our 1000 shuffles. From Section 42.3, point estimates related to hypothesis testing have a specific name: test statistics. Since the unknown population parameter of interest is the difference in population proportions \(p_{m} - p_{f}\), the test statistic here is the difference in sample proportions \(\widehat{p}_{m} - \widehat{p}_{f}\).

For each of our 1000 shuffles, we can calculate this test statistic by setting stat = "diff in props". Furthermore, since we are interested in \(\widehat{p}_{m} - \widehat{p}_{f}\) we set order = c("male", "female"). As we stated earlier, the order of the subtraction does not matter, so long as you stay consistent throughout your analysis and tailor your interpretations accordingly.

Let’s save the result in a data frame called null_distribution:

null_distribution <- promotions %>% 
  specify(formula = decision ~ gender, success = "promoted") %>% 
  hypothesize(null = "independence") %>% 
  generate(reps = 1000, type = "permute") %>% 
  calculate(stat = "diff in props", order = c("male", "female"))
null_distribution

# A tibble: 1,000 × 2
   replicate       stat
       <int>      <dbl>
 1         1 -0.0416667
 2         2 -0.125    
 3         3 -0.125    
 4         4 -0.0416667
 5         5 -0.0416667
 6         6 -0.125    
 7         7 -0.125    
 8         8 -0.125    
 9         9 -0.0416667
10        10 -0.0416667
# ℹ 990 more rows
…
So what value should you use for \(\alpha\)? Different fields have different conventions, but some commonly used values include 0.10, 0.05, 0.01, and 0.001. However, it is important to keep in mind that if you use a relatively small value of \(\alpha\), then all things being equal, \(p\)-values will have a harder time being less than \(\alpha\). Thus we would reject the null hypothesis less often. In other words, we would reject the null hypothesis \(H_0\) only if we have very strong evidence to do so. This is known as a “conservative” test.

On the other hand, if we used a relatively large value of \(\alpha\), then all things being equal, \(p\)-values will have an easier time being less than \(\alpha\). Thus we would reject the null hypothesis more often. In other words, we would reject the null hypothesis \(H_0\) even if we only have mild evidence to do so. This is known as a “liberal” test.

42.6 Case study: Are action or romance movies rated higher?

Let’s apply our knowledge of hypothesis testing to answer the question: “Are action or romance movies rated higher on IMDb?”. IMDb is a database on the internet providing information on movie and television show casts, plot summaries, trivia, and ratings. We’ll investigate if, on average, action or romance movies get higher ratings on IMDb.

42.6.1 IMDb ratings data

The movies dataset in the ggplot2movies package contains information on 58,788 movies that have been rated by users of IMDb.com.

movies

# A tibble: 58,788 × 24
   title     year length budget rating votes    r1    r2    r3    r4    r5    r6
   <chr>    <int>  <int>  <int>  <dbl> <int> <dbl> <dbl> <dbl> <dbl> <dbl> <dbl>
 1 $         1971    121     NA    6.4   348   4.5   4.5   4.5   4.5  14.5  24.5
 2 $1000 a…  1939     71     NA    6      20   0    14.5   4.5  24.5  14.5  14.5
 3 $21 a D…  1941      7     NA    8.2     5   0     0     0     0     0    24.5
 4 $40,000   1996     70     NA    8.2     6  14.5   0     0     0     0     0  
 5 $50,000…  1975     71     NA    3.4    17  24.5   4.5   0    14.5  14.5   4.5
 6 $pent     2000     91     NA    4.3    45   4.5   4.5   4.5  14.5  14.5  14.5
 7 $windle   2002     93     NA    5.3   200   4.5   0     4.5   4.5  24.5  24.5
 8 '15'      2002     25     NA    6.7    24   4.5   4.5   4.5   4.5   4.5  14.5
 9 '38       1987     97     NA    6.6    18   4.5   4.5   4.5   0     0     0  
10 '49-'17   1917     61     NA    6      51   4.5   0     4.5   4.5   4.5  44.5
# ℹ 58,778 more rows
# ℹ 12 more variables: r7 <dbl>, r8 <dbl>, r9 <dbl>, r10 <dbl>, mpaa <chr>,
#   Action <int>, Animation <int>, Comedy <int>, Drama <int>,
#   Documentary <int>, Romance <int>, Short <int>

We’ll focus on a random sample of 68 movies that are classified as either “action” or “romance” movies but not both. We disregard movies that are classified as both so that we can assign all 68 movies into either category. Furthermore, since the original movies dataset was a little messy, we provide a pre-wrangled version of our data in the movies_sample data frame included in the moderndive package. If you’re curious, you can look at the necessary data wrangling code to do this on GitHub.

movies_sample

# A tibble: 68 × 4
   title                     year rating genre  
   <chr>                    <int>  <dbl> <chr>  
 1 Underworld                1985    3.1 Action 
 2 Love Affair               1932    6.3 Romance
 3 Junglee                   1961    6.8 Romance
 4 Eversmile, New Jersey     1989    5   Romance
 5 Search and Destroy        1979    4   Action 
 6 Secreto de Romelia, El    1988    4.9 Romance
 7 Amants du Pont-Neuf, Les  1991    7.4 Romance
 8 Illicit Dreams            1995    3.5 Action 
 9 Kabhi Kabhie              1976    7.7 Romance
10 Electric Horseman, The    1979    5.8 Romance
# ℹ 58 more rows
…
In other words, the null hypothesis \(H_0\) suggests that both romance and action movies have the same mean rating. This is the “hypothesized universe” we’ll assume is true. On the other hand, the alternative hypothesis \(H_A\) suggests that there is a difference. Unlike the one-sided alternative we used in the promotions exercise \(H_A: p_m - p_f > 0\), we are now considering a two-sided alternative of \(H_A: \mu_a - \mu_r \neq 0\).

Furthermore, we’ll pre-specify a low significance level of \(\alpha\) = 0.001. By setting this value low, all things being equal, there is a lower chance that the \(p\)-value will be less than \(\alpha\). Thus, there is a lower chance that we’ll reject the null hypothesis \(H_0\) in favor of the alternative hypothesis \(H_A\). In other words, we’ll reject the hypothesis that there is no difference in mean ratings for all action and romance movies, only if we have quite strong evidence. This is known as a “conservative” hypothesis testing procedure.

1. specify variables

Let’s now perform all the steps of the infer workflow. We first specify() the variables of interest in the movies_sample data frame using the formula rating ~ genre. This tells infer that the numerical variable rating is the outcome variable, while the binary variable genre is the explanatory variable. Note that unlike previously when we were interested in proportions, since we are now interested in the mean of a numerical variable, we do not need to set the success argument.

movies_sample %>% 
  specify(formula = rating ~ genre)

Response: rating (numeric)
Explanatory: genre (factor)
# A tibble: 68 × 2
   rating genre  
    <dbl> <fct>  
 1    3.1 Action 
 2    6.3 Romance
 3    6.8 Romance
 4    5   Romance
 5    4   Action 
 6    4.9 Romance
 7    7.4 Romance
 8    3.5 Action 
 9    7.7 Romance
10    5.8 Romance
# ℹ 58 more rows

Observe at this point that the data in movies_sample has not changed. The only change so far is the newly defined Response: rating (numeric) and Explanatory: genre (factor) meta-data.

2. hypothesize the null

We set the null hypothesis \(H_0: \mu_a - \mu_r = 0\) by using the hypothesize() function. Since we have two samples, action and romance movies, we set null to be "independence" as we described in Section 42.4.

movies_sample %>% 
  specify(formula = rating ~ genre) %>% 
  hypothesize(null = "independence")

Response: rating (numeric)
Explanatory: genre (factor)
Null Hypothesis: independence
# A tibble: 68 × 2
   rating genre  
    <dbl> <fct>  
 1    3.1 Action 
 2    6.3 Romance
 3    6.8 Romance
 4    5   Romance
 5    4   Action 
 6    4.9 Romance
 7    7.4 Romance
 8    3.5 Action 
 9    7.7 Romance
10    5.8 Romance
# ℹ 58 more rows
…
4. calculate summary statistics

Now that we have 1000 replicated “shuffles” assuming the null hypothesis \(H_0\) that both Action and Romance movies on average have the same ratings on IMDb, let’s calculate() the appropriate summary statistic for these 1000 replicated shuffles. From Section 42.3, summary statistics relating to hypothesis testing have a specific name: test statistics. Since the unknown population parameter of interest is the difference in population means \(\mu_{a} - \mu_{r}\), the test statistic of interest here is the difference in sample means \(\overline{x}_{a} - \overline{x}_{r}\).

For each of our 1000 shuffles, we can calculate this test statistic by setting stat = "diff in means". Furthermore, since we are interested in \(\overline{x}_{a} - \overline{x}_{r}\), we set order = c("Action", "Romance"). Let’s save the results in a data frame called null_distribution_movies:

null_distribution_movies <- movies_sample %>% 
  specify(formula = rating ~ genre) %>% 
  hypothesize(null = "independence") %>% 
  generate(reps = 1000, type = "permute") %>% 
  calculate(stat = "diff in means", order = c("Action", "Romance"))
null_distribution_movies

# A tibble: 1,000 × 2
   replicate      stat
       <int>     <dbl>
 1         1  0.511111
 2         2  0.345833
 3         3 -0.327083
 4         4 -0.209028
 5         5 -0.433333
 6         6 -0.102778
 7         7  0.387153
 8         8  0.168750
 9         9  0.257292
10        10  0.334028
# ℹ 990 more rows
…
