M6A: Wrangling and Tidying Data | Introduction to Data Science
…
17.9.4 arrange and sort rows

One of the most commonly performed data wrangling tasks is to sort a data frame’s rows in the alphanumeric order of one of the variables. The dplyr package’s arrange() function allows us to sort/reorder a data frame’s rows according to the values of the specified variable.

Suppose we are interested in determining the most frequent destination airports for all domestic flights departing from New York City in 2013:

freq_dest <- flights %>% 
  group_by(dest) %>% 
  summarize(num_flights = n())
freq_dest

## # A tibble: 105 × 2
##    dest  num_flights
##    <chr>       <int>
##  1 ABQ           254
##  2 ACK           265
##  3 ALB           439
##  4 ANC             8
##  5 ATL         17215
##  6 AUS          2439
##  7 AVL           275
##  8 BDL           443
##  9 BGR           375
## 10 BHM           297
## # ℹ 95 more rows

Observe that by default the rows of the resulting freq_dest data frame are sorted in alphabetical order of destination. Say instead we would like to see the same data, but sorted from the most to the least number of flights (num_flights) instead:

freq_dest %>% 
  arrange(num_flights)

## # A tibble: 105 × 2
##    dest  num_flights
##    <chr>       <int>
##  1 LEX             1
##  2 LGA             1
##  3 ANC             8
##  4 SBN            10
##  5 HDN            15
##  6 MTJ            15
##  7 EYW            17
##  8 PSP            19
##  9 JAC            25
## 10 BZN            36
## # ℹ 95 more rows

This is, however, the opposite of what we want. The rows are sorted with the least frequent destination airports displayed first. This is because arrange() always returns rows sorted in ascending order by default. To switch the ordering to be in “descending” order instead, we use the desc() function as so:

freq_dest %>% 
  arrange(desc(num_flights))

## # A tibble: 105 × 2
##    dest  num_flights
##    <chr>       <int>
##  1 ORD         17283
##  2 ATL         17215
##  3 LAX         16174
##  4 BOS         15508
##  5 MCO         14082
##  6 CLT         14064
##  7 SFO         13331
##  8 FLL         12055
##  9 MIA         11728
## 10 DCA          9705
## # ℹ 95 more rows
…
To practice tidying data, we need to load a Comma Separated Values .csv file, the same format that I encouraged you to find for your personal dataset. You can think of a .csv file as a bare-bones spreadsheet where:

Each line in the file corresponds to one row of data/one observation.

Values for each line are separated with commas. In other words, the values of different variables are separated by commas in each row.

The first line is often, but not always, a header row indicating the names of the columns/variables.

The .csv file we’re interested in here is dem_score.csv—it is found in the activity_data subfolder of your class project folder and contains ratings of the level of democracy in different countries spanning 1952 to 1992. Let’s use the read_csv() function from the readr package (with some help from the @here package) to read it from your computer, import it into R, and save it in a data frame called dem_score.

library(readr)
dem_score <- read_csv(here("activity_data","dem_score.csv"))
dem_score

## # A tibble: 96 × 10
##    country    `1952` `1957` `1962` `1967` `1972` `1977` `1982` `1987` `1992`
##    <chr>       <dbl>  <dbl>  <dbl>  <dbl>  <dbl>  <dbl>  <dbl>  <dbl>  <dbl>
##  1 Albania        -9     -9     -9     -9     -9     -9     -9     -9      5
##  2 Argentina      -9     -1     -1     -9     -9     -9     -8      8      7
##  3 Armenia        -9     -7     -7     -7     -7     -7     -7     -7      7
##  4 Australia      10     10     10     10     10     10     10     10     10
##  5 Austria        10     10     10     10     10     10     10     10     10
##  6 Azerbaijan     -9     -7     -7     -7     -7     -7     -7     -7      1
##  7 Belarus        -9     -7     -7     -7     -7     -7     -7     -7      7
##  8 Belgium        10     10     10     10     10     10     10     10     10
##  9 Bhutan        -10    -10    -10    -10    -10    -10    -10    -10    -10
## 10 Bolivia        -4     -3     -3     -4     -7     -7      8      9      9
## # ℹ 86 more rows
…
