36 M12A: Confidence Intervals | Introduction to Data Science
…
Let’s start by introducing or reviewing some terminology using the almonds example. The bowl of chocolate-covered almonds is the population of interest. The parameter of interest is the population mean weight of almonds in the bowl, \(\mu\). This is the quantity we want to estimate.

We want to use the sample mean to estimate this parameter. So we’ll call the sample mean an estimator or an estimate of \(\mu\), the population mean weight. The difference between estimator and estimate is worth discussing.

As an illustration, let’s decide to take a random sample of 100 almonds from the bowl and use its sample mean weight to estimate the population mean weight. In other words, we want to sum 100 almonds’ weights, divide this sum by 100, and use this value to estimate the population mean weight. When we refer to the sample mean to describe this process via an equation, the sample mean weight is called an estimator of the population mean weight. Since different samples produce different sample means, the sample mean as an estimator is the random variable \(\overline  X\) described in Section 33.4.5. As we have learned previously studying the sampling distribution, we know that this estimator follows, approximately, a normal distribution; its expected value is equal to the population mean weight. Its standard deviation, also called standard error, is

\[SE(\bar x) = \frac{\sigma}{\sqrt{n}}\]

where \(n = 100\) in this example and \(\sigma\) is the population standard deviation of almonds’ weights.

Let’s take a random sample of 100 almonds’ weights such and store it in the moderndive package with the same name:

almonds_sample_100

# A tibble: 100 × 3
# Groups:   replicate [1]
   replicate    ID weight
       <int> <int>  <dbl>
 1         1   166    4.2
 2         1  1215    4.2
 3         1  1899    3.9
 4         1  1912    3.8
 5         1  4637    3.3
 6         1   511    3.5
 7         1   127    4  
 8         1  4419    3.5
 9         1  4729    4.2
10         1  2574    4.1
# ℹ 90 more rows
…
Ever since Efron [@Efron1979] proposed the bootstrap, the statistical community embraced this method. During the 1980s and 1990s, many theoretical and empirical results were presented showing the strength of bootstrap methods. As an illustration, Efron [@Efron1979], Hall [@Hall1986], Efron and Tibshirani[@EfronTibshi1986], and Hall [@Hall1988] showed that bootstrapping was at least as good if not better than existing methods for estimating the standard error of an estimator or finding the confidence intervals of a parameter. Modifications were proposed to improve the algorithm in situations where the basic method was not producing accurate results. With the continuous improvement of computing power and speed, and the advantages of having ready-to-use statistical software for its implementation, the use of the bootstrap has become more and more popular in many fields.

As an illustration, if we are interested in the mean of the population, \(\mu\), and we have collected one random sample, we can gain a large number of bootstrap samples from this original sample, use them to calculate sample means, order the sample means from smallest to largest, and choose the interval that contains the middle 95% of these sample means. This will be the simplest way to find a confidence interval based on the bootstrap. In the next few subsections, we explore how to incorporate this and similar methods to construct confidence intervals.

36.2.1 Bootstrap samples: revisiting the almond activity

To study and understand the behavior of bootstrap samples, we return to our example of the chocolate-covered almonds in a bowl. Recall that the bowl is considered the population of almonds, and we are interested in estimating the population mean weight of almonds.

As we did before, we only have access to a single random sample. In this section, we use the data frame almonds_sample_100, a random sample of 100 almonds taken earlier. We call this the original sample, and it is used in this section to create the bootstrap samples.
The first 10 rows are shown:

almonds_sample_100

# A tibble: 100 × 3
# Groups:   replicate [1]
   replicate    ID weight
       <int> <int>  <dbl>
 1         1   166    4.2
 2         1  1215    4.2
 3         1  1899    3.9
 4         1  1912    3.8
 5         1  4637    3.3
 6         1   511    3.5
 7         1   127    4  
 8         1  4419    3.5
 9         1  4729    4.2
10         1  2574    4.1
# ℹ 90 more rows
…
Figure 36.11: Step 3: Replacing almond.

Step 4: Repeat Steps 2 and 3 a total of 99 more times, resulting in 100 weights.

These steps describe resampling with replacement, and the resulting sample is called a bootstrap sample. This procedure results in some almonds being chosen more than once and other almonds not being chosen at all. Resampling with replacement induces sampling variation, so every bootstrap sample can be different than any other.

This activity can be performed manually following the steps described above. We can also take advantage of the R code we reviewed when discussing sampling and do this virtually.
The data frame almonds_sample_100 contains the random sample of almonds taken from the population. We show selected rows from this sample.

almonds_sample_100 <- almonds_sample_100 |> 
  ungroup() |> 
  select(-replicate)
almonds_sample_100

# A tibble: 100 × 2
      ID weight
   <int>  <dbl>
 1   166    4.2
 2  1215    4.2
 3  1899    3.9
 4  1912    3.8
 5  4637    3.3
 6   511    3.5
 7   127    4  
 8  4419    3.5
 9  4729    4.2
10  2574    4.1
# ℹ 90 more rows

We use ungroup() and select to eliminate the variable replicate from the almonds_sample_100 as this variable may create clutter when resampling. We can now create a bootstrap sample also of size 100 by resampling with replacement once.

boot_sample <- almonds_sample_100 |> 
  rep_sample_n(size = 100, replace = TRUE, reps = 1)

We used this type of R syntax many times when sampling.
We first select the data frame almonds_sample_100 that contains the almonds’ weights in the original sample.
We then perform resampling with replacement once: we resample by using rep_sample_n(), a sample of size 100 by setting size = 100, with replacement by adding the argument replace = TRUE, and one time by setting reps = 1.
The object boot_sample is a bootstrap sample of 100 almonds’ weights gained from the original sample of 100 almonds’ weights. We show the first ten rows of boot_sample:

boot_sample

# A tibble: 100 × 3
# Groups:   replicate [1]
   replicate    ID weight
       <int> <int>  <dbl>
 1         1  2105    3.1
 2         1  4529    3.8
 3         1  1146    4.2
 4         1  2993    3.2
 5         1  1535    3.2
 6         1  2294    3.7
 7         1   438    3.8
 8         1  4419    3.5
 9         1  1674    3.5
10         1  1146    4.2
# ℹ 90 more rows
…
Figure 36.12: Comparing weight in the resampled boot_sample with the original sample almonds_sample_100.

Observe in Figure 36.12 that while the general shapes of both distributions of weights are roughly similar, they are not identical.
This is the typical behavior of bootstrap samples. They are samples that have been determined from the original sample, but because replacement is used before each new observation is attained, some values often appear more than once while others often do not appear at all.

Many bootstrap samples: resampling multiple times

In this subsection, we’ll take full advantage of resampling with replacement by taking many bootstrap samples and study relevant information, such as the variability of their sample means. We can start by using the R syntax we used before, this time for 35 replications.

bootstrap_samples_35 <- almonds_sample_100 |> 
  rep_sample_n(size = 100, replace = TRUE, reps = 35)
bootstrap_samples_35

# A tibble: 3,500 × 3
# Groups:   replicate [35]
   replicate    ID weight
       <int> <int>  <dbl>
 1         1  1459    3.6
 2         1  2972    3.4
 3         1  1215    4.2
 4         1  1381    3.4
 5         1  1264    3.5
 6         1   199    3.4
 7         1   476    3.8
 8         1  4806    3.7
 9         1  3169    4.1
10         1  2265    3.4
# ℹ 3,490 more rows

The syntax is the same as before, but this time we set reps = 35 to get 35 bootstrap samples.
The resulting data frame, bootstrap_samples, has 35 \(\cdot\) 100 = 3500 rows corresponding to 35 resamples of 100 almonds’ weights. Let’s now compute the resulting 35 sample means using the same dplyr code as we did in the previous section:

boot_means <- bootstrap_samples_35 |> 
  summarize(mean_weight = mean(weight))
boot_means

# A tibble: 35 × 2
   replicate mean_weight
       <int>       <dbl>
 1         1       3.68 
 2         2       3.688
 3         3       3.632
 4         4       3.68 
 5         5       3.679
 6         6       3.675
 7         7       3.678
 8         8       3.706
 9         9       3.643
10        10       3.68 
# ℹ 25 more rows
…
# Compute sample means from the bootstrap samples
boot_means <- bootstrap_samples |> 
  summarize(mean_weight = mean(weight))

We can combine these two operations into a single chain of pipe (|>) operators:

boot_means <- almonds_sample_100 |> 
  rep_sample_n(size = 100, replace = TRUE, reps = 1000) |> 
  summarize(mean_weight = mean(weight))
boot_means

# A tibble: 1,000 × 2
   replicate mean_weight
       <int>       <dbl>
 1         1       3.68 
 2         2       3.688
 3         3       3.632
 4         4       3.68 
 5         5       3.679
 6         6       3.675
 7         7       3.678
 8         8       3.706
 9         9       3.643
10        10       3.68 
# ℹ 990 more rows
…
Figure 36.15: Diagram of the specify() verb.

As shown in Figure 36.15, the specify() function is used to choose which variables in a data frame are the focus of our statistical inference. We do this by specifying the response argument. For example, in our almonds_sample_100 data frame of the 100 almonds sampled from the bowl, the variable of interest is weight:

almonds_sample_100 |> 
  specify(response = weight)

Response: weight (numeric)
# A tibble: 100 × 1
   weight
    <dbl>
 1    4.2
 2    4.2
 3    3.9
 4    3.8
 5    3.3
 6    3.5
 7    4  
 8    3.5
 9    4.2
10    4.1
# ℹ 90 more rows
…
Figure 36.16: Diagram of generate() replicates.

After we specify() the variables of interest, we pipe the results into the generate() function to generate replicates. This is the function that produces the bootstrap samples or performs the similar resampling process a large number of times, based on the variable(s) specified previously, as shown in Figure 36.16. Recall we did this 1000 times.

The generate() function’s first argument is reps, which sets the number of replicates we would like to generate. Since we want to resample the 100 almonds in almonds_sample_100 with replacement 1000 times, we set reps = 1000.

The second argument type determines the type of computer simulation used. Setting this to type = "bootstrap" produces bootstrap samples using resampling with replacement. We’ll see different options for type in a later walkthrough.

almonds_sample_100 |> 
  specify(response = weight) |> 
  generate(reps = 1000, type = "bootstrap")

Response: weight (numeric)
# A tibble: 100,000 × 2
# Groups:   replicate [1,000]
   replicate weight
       <int>  <dbl>
 1         1    3.6
 2         1    3.4
 3         1    4.2
 4         1    3.4
 5         1    3.5
 6         1    3.4
 7         1    3.8
 8         1    3.7
 9         1    4.1
10         1    3.4
# ℹ 99,990 more rows
…
In our example, we calculate the mean weight for each bootstrap sample by setting the stat argument equal to "mean" inside the calculate() function. The stat argument can be used for other common summary statistics such as "median", "sum", "sd" (standard deviation), and "prop" (proportion). To see a list of other possible summary statistics you can use, type ?calculate and read the help file.

Let’s save the result in a data frame called bootstrap_means and explore its contents:

bootstrap_means <- almonds_sample_100 |> 
  specify(response = weight) |> 
  generate(reps = 1000) |> 
  calculate(stat = "mean")

Setting `type = "bootstrap"` in `generate()`.

bootstrap_means

Response: weight (numeric)
# A tibble: 1,000 × 2
   replicate  stat
       <int> <dbl>
 1         1 3.68 
 2         2 3.688
 3         3 3.632
 4         4 3.68 
 5         5 3.679
 6         6 3.675
 7         7 3.678
 8         8 3.706
 9         9 3.643
10        10 3.68 
# ℹ 990 more rows
…
Figure 36.20: infer package workflow for confidence intervals.

36.2.4 Confidence intervals using bootstrap samples with infer

Now, we’re ready to introduce confidence intervals using the bootstrap via infer. Let’s look at two different methods for constructing 95% confidence intervals as interval estimates of an unknown population parameter: the percentile method and the standard error method{Bootstrap!standard error method}. Let’s now check out the infer package code that explicitly constructs these. There are also some additional neat functions to visualize the resulting confidence intervals built-in to the infer package.

Percentile method

Recall that in Subsection 36.2.3, we generated 1000 bootstrap samples and stored them in data frame bootstrap_means:

bootstrap_means

Response: weight (numeric)
# A tibble: 1,000 × 2
   replicate  stat
       <int> <dbl>
 1         1 3.68 
 2         2 3.688
 3         3 3.632
 4         4 3.68 
 5         5 3.679
 6         6 3.675
 7         7 3.678
 8         8 3.706
 9         9 3.643
10        10 3.68 
# ℹ 990 more rows
…
Standard error method: (3.61, 3.75)

Theory-based method: (3.61, 3.76)

36.3 Case study: is yawning contagious?

Let’s apply our knowledge of confidence intervals to answer the question: “Is yawning contagious?”. If you see someone else yawn, are you more likely to yawn? In an episode of the US show Mythbusters that aired on Discovery, the hosts conducted an experiment to answer this question. More information about the episode is available on IMDb.

36.3.1 Mythbusters study data

Fifty adult participants who thought they were being considered for an appearance on the show were interviewed by a show recruiter. In the interview, the recruiter either yawned or did not. Participants then sat by themselves in a large van and were asked to wait. While in the van, the Mythbusters team watched the participants using a hidden camera to see if they yawned. The data frame containing the results of their experiment is available as mythbusters_yawn included in the moderndive package: 

mythbusters_yawn

# A tibble: 50 × 3
    subj group   yawn 
   <int> <chr>   <chr>
 1     1 seed    yes  
 2     2 control yes  
 3     3 seed    no   
 4     4 seed    yes  
 5     5 seed    no   
 6     6 control no   
 7     7 seed    yes  
 8     8 control no   
 9     9 control no   
10    10 seed    no   
# ℹ 40 more rows
…
mythbusters_yawn |> 
  specify(formula = yawn ~ group)

Error: A level of the response variable `yawn` needs to be specified for the 
`success` argument in `specify()`.

Alas, we got an error message that infer is telling us that one of the levels of the categorical variable yawn needs to be defined as the success. Recall that we define success to be the event of interest we are trying to count and compute proportions of. Are we interested in those participants who "yes" yawned or those who "no" didn’t yawn? This isn’t clear to R or someone just picking up the code and results for the first time, so we need to set the success argument to "yes" as follows to improve the transparency of the code:

mythbusters_yawn |> 
  specify(formula = yawn ~ group, success = "yes")

Response: yawn (factor)
Explanatory: group (factor)
# A tibble: 50 × 2
   yawn  group  
   <fct> <fct>  
 1 yes   seed   
 2 yes   control
 3 no    seed   
 4 yes   seed   
 5 no    seed   
 6 no    control
 7 yes   seed   
 8 no    control
 9 no    control
10 no    seed   
# ℹ 40 more rows
…
We can see that in this bootstrap sample generated from the first six rows of mythbusters_yawn, we have some rows repeated. The same is true when we perform the generate() step in infer as done in what follows. Using this fact, we generate 1000 replicates, or, in other words, we bootstrap resample the 50 participants with replacement 1000 times.

mythbusters_yawn |> 
  specify(formula = yawn ~ group, success = "yes") |> 
  generate(reps = 1000, type = "bootstrap")

Response: yawn (factor)
Explanatory: group (factor)
# A tibble: 50,000 × 3
# Groups:   replicate [1,000]
   replicate yawn  group  
       <int> <fct> <fct>  
 1         1 yes   seed   
 2         1 yes   control
 3         1 no    control
 4         1 no    control
 5         1 yes   seed   
 6         1 yes   seed   
 7         1 yes   seed   
 8         1 yes   seed   
 9         1 no    seed   
10         1 yes   seed   
# ℹ 49,990 more rows
…
We see another warning here. We need to specify the order of the subtraction. Is it \(\widehat{p}_{seed} - \widehat{p}_{control}\) or \(\widehat{p}_{control} - \widehat{p}_{seed}\). We specify it to be \(\widehat{p}_{seed} - \widehat{p}_{control}\) by setting order = c("seed", "control"). Note that you could’ve also set order = c("control", "seed"). As we stated earlier, the order of the subtraction does not matter, so long as you stay consistent throughout your analysis and tailor your interpretations accordingly.

Let’s save the output in a data frame bootstrap_distribution_yawning:

bootstrap_distribution_yawning <- mythbusters_yawn |> 
  specify(formula = yawn ~ group, success = "yes") |> 
  generate(reps = 1000, type = "bootstrap") |> 
  calculate(stat = "diff in props", order = c("seed", "control"))
bootstrap_distribution_yawning

# A tibble: 1,000 × 2
   replicate        stat
       <int>       <dbl>
 1         1  0.0357143 
 2         2  0.229167  
 3         3  0.00952381
 4         4  0.0106952 
 5         5  0.00483092
 6         6  0.00793651
 7         7 -0.0845588 
 8         8 -0.00466200
 9         9  0.164686  
10        10  0.124777  
# ℹ 990 more rows
…
