6 M2A: Getting Started with Data in R | Introduction to Data Science
…
planes: Information about each of the 4,840 physical aircraft used.

weather: Hourly meteorological data for each of the three NYC airports. This data frame has 26,207 rows, roughly corresponding to the \(365 \times 24 \times 3 = 26,280\) possible hourly measurements one can observe at three locations over the course of a year.

airports: Names, codes, and locations of the 1,255 domestic destinations.

The nycflights23 package is an updated version of the classic nycflights13 R package. nycflights23 was authored by Chester Ismay using the anyflights R package developed by Simon Couch. Simon granted permission to Ismay and his colleagues to create nycflights23 and submit the package to CRAN.

6.4.2 flights data frame

We’ll begin by exploring the flights data frame and get an idea of its structure. Run the following code in your console, either by typing it or by cutting-and-pasting it. It displays the contents of the flights data frame in your console. Note that depending on the size of your monitor, the output may vary slightly.

flights

# A tibble: 435,352 × 22
    year month   day dep_time sched_dep_time dep_delay arr_time sched_arr_time
   <int> <int> <int>    <int>          <int>     <dbl>    <int>          <int>
 1  2023     1     1        1           2038       203      328              3
 2  2023     1     1       18           2300        78      228            135
 3  2023     1     1       31           2344        47      500            426
 4  2023     1     1       33           2140       173      238           2352
 5  2023     1     1       36           2048       228      223           2252
 6  2023     1     1      503            500         3      808            815
 7  2023     1     1      520            510        10      948            949
 8  2023     1     1      524            530        -6      645            710
 9  2023     1     1      537            520        17      926            818
10  2023     1     1      547            545         2      845            852
# ℹ 435,342 more rows
# ℹ 14 more variables: arr_delay <dbl>, carrier <chr>, flight <int>,
#   tailnum <chr>, origin <chr>, dest <chr>, air_time <dbl>, distance <dbl>,
#   hour <dbl>, minute <dbl>, time_hour <dttm>, gain <dbl>, hours <dbl>,
#   gain_per_hour <dbl>
…
