18 M6A: Wrangling and Tidying Data | Introduction to Data Science
…
18.2.4 arrange and sort rows

One of the most commonly performed data-wrangling tasks is to sort a data frame’s rows in the alphanumeric order of one of the variables. The dplyr package’s arrange() function allows us to sort/reorder a data frame’s rows according to the values of the specified variable.

Suppose we are interested in determining the most frequent destination airports for all domestic flights departing from New York City in 2023. To do this requires using the group_by() function, which we won’t cover in detail until later, but you should be able to get a sense for what it does and how it fits into everything else here.

freq_dest <- flights |> 
  group_by(dest) |> 
  summarize(num_flights = n())
freq_dest

# A tibble: 118 × 2
   dest  num_flights
   <chr>       <int>
 1 ABQ           228
 2 ACK           916
 3 AGS            20
 4 ALB          1581
 5 ANC            95
 6 ATL         17570
 7 AUS          4848
 8 AVL          1617
 9 AVP           145
10 BDL           701
# ℹ 108 more rows

Observe that by default the rows of the resulting freq_dest data frame are sorted in alphabetical order of destination. Say instead we would like to see the same data, but sorted from the most to the least number of flights (num_flights) instead:

freq_dest |> 
  arrange(num_flights)

# A tibble: 118 × 2
   dest  num_flights
   <chr>       <int>
 1 LEX             1
 2 AGS            20
 3 OGG            20
 4 SBN            24
 5 HDN            28
 6 PNS            71
 7 MTJ            77
 8 ANC            95
 9 VPS           109
10 AVP           145
# ℹ 108 more rows

This is, however, the opposite of what we want. The rows are sorted with the least frequent destination airports displayed first. This is because arrange() always returns rows sorted in ascending order by default. To switch the ordering to be in “descending” order instead, we use the desc() function as so:

freq_dest |> 
  arrange(desc(num_flights))

# A tibble: 118 × 2
   dest  num_flights
   <chr>       <int>
 1 BOS         19036
 2 ORD         18200
 3 MCO         17756
 4 ATL         17570
 5 MIA         16076
 6 LAX         15968
 7 FLL         14239
 8 CLT         12866
 9 DFW         11675
10 SFO         11651
# ℹ 108 more rows
…
flights_with_airport_names <- flights |> 
  inner_join(airports, by = c("dest" = "faa"))
View(flights_with_airport_names)

Let’s construct the chain of pipe operators |> that computes the number of flights from NYC to each destination, but also includes information about each destination airport:

named_dests <- flights |>
  group_by(dest) |>
  summarize(num_flights = n()) |>
  arrange(desc(num_flights)) |>
  inner_join(airports, by = c("dest" = "faa")) |>
  rename(airport_name = name)
named_dests

# A tibble: 118 × 9
   dest  num_flights airport_name          lat       lon   alt    tz dst   tzone
   <chr>       <int> <chr>               <dbl>     <dbl> <dbl> <dbl> <chr> <chr>
 1 BOS         19036 General Edward L… 42.3643  -71.0052    20    -5 A     Amer…
 2 ORD         18200 Chicago O'Hare I… 41.9786  -87.9048   672    -6 A     Amer…
 3 MCO         17756 Orlando Internat… 28.4294  -81.3090    96    -5 A     Amer…
 4 ATL         17570 Hartsfield Jacks… 33.6367  -84.4281  1026    -5 A     Amer…
 5 MIA         16076 Miami Internatio… 25.7932  -80.2906     8    -5 A     Amer…
 6 LAX         15968 Los Angeles Inte… 33.9425 -118.408    125    -8 A     Amer…
 7 FLL         14239 Fort Lauderdale … 26.0726  -80.1527     9    -5 A     Amer…
 8 CLT         12866 Charlotte Dougla… 35.2140  -80.9431   748    -5 A     Amer…
 9 DFW         11675 Dallas Fort Wort… 32.8968  -97.0380   607    -6 A     Amer…
10 SFO         11651 San Francisco In… 37.6190 -122.375     13    -8 A     Amer…
# ℹ 108 more rows
…
To practice tidying data, we need to load a Comma Separated Values .csv file, the same format that I encouraged you to find for your personal dataset. You can think of a .csv file as a bare-bones spreadsheet where:

Each line in the file corresponds to one row of data/one observation.

Values for each line are separated with commas. In other words, the values of different variables are separated by commas in each row.

The first line is often, but not always, a header row indicating the names of the columns/variables.

The .csv file we’re interested in here is dem_score.csv—it is found in the activity_data subfolder of your class project folder and contains ratings of the level of democracy in different countries spanning 1952 to 1992. Let’s use the read_csv() function from the readr package (with some help from the @here package) to read it from your computer, import it into R, and save it in a data frame called dem_score.

library(readr)
dem_score <- read_csv(here("activity_data","dem_score.csv"))
dem_score

# A tibble: 96 × 10
   country    `1952` `1957` `1962` `1967` `1972` `1977` `1982` `1987` `1992`
   <chr>       <dbl>  <dbl>  <dbl>  <dbl>  <dbl>  <dbl>  <dbl>  <dbl>  <dbl>
 1 Albania        -9     -9     -9     -9     -9     -9     -9     -9      5
 2 Argentina      -9     -1     -1     -9     -9     -9     -8      8      7
 3 Armenia        -9     -7     -7     -7     -7     -7     -7     -7      7
 4 Australia      10     10     10     10     10     10     10     10     10
 5 Austria        10     10     10     10     10     10     10     10     10
 6 Azerbaijan     -9     -7     -7     -7     -7     -7     -7     -7      1
 7 Belarus        -9     -7     -7     -7     -7     -7     -7     -7      7
 8 Belgium        10     10     10     10     10     10     10     10     10
 9 Bhutan        -10    -10    -10    -10    -10    -10    -10    -10    -10
10 Bolivia        -4     -3     -3     -4     -7     -7      8      9      9
# ℹ 86 more rows
…
